{
  "results" : [
    {
      "id" : 554993,
      "adult" : false,
      "backdrop_path" : "\/oCFbh4Mrd0fuGanCgIF6sG27WGD.jpg",
      "original_title" : "Britt-Marie var här",
      "genre_ids" : [
        35,
        18
      ],
      "vote_average" : 5.4000000000000004,
      "popularity" : 351.30700000000002,
      "poster_path" : "\/1Duc3EBiegywczxTWekvy03HWai.jpg",
      "title" : "Britt-Marie Was Here",
      "overview" : "Britt-Marie, a woman in her sixties, decides to leave her husband and start anew. Having been housewife for most of her life and and living in small backwater town of Borg, there isn't many jobs available and soon she finds herself fending a youth football team.",
      "original_language" : "sv",
      "vote_count" : 12,
      "release_date" : "2019-01-25",
      "video" : false
    },
    {
      "id" : 514847,
      "adult" : false,
      "backdrop_path" : "\/naXUDz0VGK7aaPlEpsuYW8kNVsr.jpg",
      "original_title" : "The Hunt",
      "genre_ids" : [
        28,
        27,
        53
      ],
      "vote_average" : 6.7000000000000002,
      "popularity" : 65.834000000000003,
      "poster_path" : "\/wxPhn4ef1EAo5njxwBkAEVrlJJG.jpg",
      "title" : "The Hunt",
      "overview" : "Twelve strangers wake up in a clearing. They don't know where they are—or how they got there. In the shadow of a dark internet conspiracy theory, ruthless elitists gather at a remote location to hunt humans for sport. But their master plan is about to be derailed when one of the hunted turns the tables on her pursuers.",
      "original_language" : "en",
      "vote_count" : 964,
      "release_date" : "2020-03-11",
      "video" : false
    },
    {
      "id" : 619592,
      "adult" : false,
      "backdrop_path" : "\/jAtO4ci8Tr5jDmg33XF3OZ8VPah.jpg",
      "original_title" : "Force of Nature",
      "genre_ids" : [
        28,
        18
      ],
      "vote_average" : 0,
      "popularity" : 56.012999999999998,
      "poster_path" : "\/ucktgbaMSaETUDLUBp1ubGD6aNj.jpg",
      "title" : "Force of Nature",
      "overview" : "A gang of thieves plan a heist during a hurricane and encounter trouble when a disgraced cop tries to force everyone in the building to evacuate.",
      "original_language" : "en",
      "vote_count" : 0,
      "release_date" : "2020-07-02",
      "video" : false
    },
    {
      "id" : 522098,
      "adult" : false,
      "backdrop_path" : "\/cQIusqAdSz0AMGSpHGHQkD6iStR.jpg",
      "original_title" : "Babyteeth",
      "genre_ids" : [
        35,
        18
      ],
      "vote_average" : 4.4000000000000004,
      "popularity" : 51.225999999999999,
      "poster_path" : "\/aINpljdt3VVMrCLtJW4BektwYOp.jpg",
      "title" : "Babyteeth",
      "overview" : "A terminally ill teen upsets her parents when she falls in love with a small-time drug dealer.",
      "original_language" : "en",
      "vote_count" : 9,
      "release_date" : "2020-06-18",
      "video" : false
    },
    {
      "id" : 579583,
      "adult" : false,
      "backdrop_path" : "\/5rwcd24GGltKiqdPT4G2dmchLr9.jpg",
      "original_title" : "The King of Staten Island",
      "genre_ids" : [
        35,
        18
      ],
      "vote_average" : 0,
      "popularity" : 48.850000000000001,
      "poster_path" : "\/zQFjMmE3K9AX5QrBL1SXIxYQ9jz.jpg",
      "title" : "The King of Staten Island",
      "overview" : "Scott has been a case of arrested development ever since his firefighter father died when he was seven. He’s now reached his mid-20s having achieved little, chasing a dream of becoming a tattoo artist that seems far out of reach. As his ambitious younger sister heads off to college, Scott is still living with his exhausted ER nurse mother and spends his days smoking weed, hanging with the guys — Oscar, Igor and Richie — and secretly hooking up with his childhood friend Kelsey. But when his mother starts dating a loudmouth firefighter named Ray, it sets off a chain of events that will force Scott to grapple with his grief and take his first tentative steps toward moving forward in life.",
      "original_language" : "en",
      "vote_count" : 0,
      "release_date" : "2020-07-01",
      "video" : false
    },
    {
      "id" : 451184,
      "vote_average" : 6.5999999999999996,
      "genre_ids" : [
        18,
        36,
        53
      ],
      "original_title" : "Wasp Network",
      "backdrop_path" : "\/72r4uAQGsa8KEv0DB2TpSu31lEB.jpg",
      "adult" : false,
      "popularity" : 48.465000000000003,
      "poster_path" : "\/fOvqEunubL3wPskvtk2Ficfl0pH.jpg",
      "title" : "Wasp Network",
      "overview" : "Havana, Cuba, 1990. René González, an airplane pilot, unexpectedly flees the country, leaving behind his wife Olga and his daughter Irma, and begins a new life in Miami, where he becomes a member of an anti-Castro organization.",
      "original_language" : "en",
      "vote_count" : 63,
      "release_date" : "2020-01-29",
      "video" : false
    },
    {
      "id" : 486589,
      "adult" : false,
      "backdrop_path" : "\/bga3i5jcejBekr2FCGJga1fYCh.jpg",
      "original_title" : "Red Shoes and the Seven Dwarfs",
      "genre_ids" : [
        16,
        10749,
        10751
      ],
      "vote_average" : 6.5999999999999996,
      "popularity" : 36.597999999999999,
      "poster_path" : "\/MBiKqTsouYqAACLYNDadsjhhC0.jpg",
      "title" : "Red Shoes and the Seven Dwarfs",
      "overview" : "Princes who have been turned into Dwarfs seek the red shoes of a lady in order to break the spell, although it will not be easy.",
      "original_language" : "en",
      "vote_count" : 151,
      "release_date" : "2019-07-25",
      "video" : false
    },
    {
      "id" : 522938,
      "adult" : false,
      "backdrop_path" : "\/3IHqwENGxOb36Jgeot4XHs3BTxz.jpg",
      "original_title" : "Rambo: Last Blood",
      "genre_ids" : [
        28,
        18,
        53
      ],
      "vote_average" : 6.2999999999999998,
      "popularity" : 35.561,
      "poster_path" : "\/kTQ3J8oTTKofAVLYnds2cHUz9KO.jpg",
      "title" : "Rambo: Last Blood",
      "overview" : "After fighting his demons for decades, John Rambo now lives in peace on his family ranch in Arizona, but his rest is interrupted when Gabriela, the granddaughter of his housekeeper María, disappears after crossing the border into Mexico to meet her biological father. Rambo, who has become a true father figure for Gabriela over the years, undertakes a desperate and dangerous journey to find her.",
      "original_language" : "en",
      "vote_count" : 1880,
      "release_date" : "2019-09-19",
      "video" : false
    },
    {
      "id" : 591774,
      "adult" : false,
      "backdrop_path" : "\/cSVsGJCDB2TZ3aJMrvfOInW8jqg.jpg",
      "original_title" : "Run with the Hunted",
      "genre_ids" : [
        80,
        18,
        53
      ],
      "vote_average" : 3.5,
      "popularity" : 34.834000000000003,
      "poster_path" : "\/5xPfTKBa9R6YGcxWpfRzYHjk3IA.jpg",
      "title" : "Run with the Hunted",
      "overview" : "Oscar, a young boy, commits a noble murder and is forced to runaway from his rural hometown, leaving behind his best friend, Loux. He escapes to the nearest city, where he is inducted into a gang of child street thieves. His innocence slips away as he is introduced to love, murder, and corruption. 15 years later, he has forgotten his past and become the leader of this band of lost children. When Loux moves to the city in search of work, she takes a job with a struggling private investigator. Stumbling upon Oscar's missing child report, she takes it upon herself to find the boy who saved her life.",
      "original_language" : "en",
      "vote_count" : 2,
      "release_date" : "2020-06-26",
      "video" : false
    },
    {
      "id" : 525661,
      "adult" : false,
      "backdrop_path" : "\/nj84vpuUWdbmYktBzjiWn5Ny1ZF.jpg",
      "original_title" : "Bombshell",
      "genre_ids" : [
        18
      ],
      "vote_average" : 6.7999999999999998,
      "popularity" : 34.604999999999997,
      "poster_path" : "\/gbPfvwBqbiHpQkYZQvVwB6MVauV.jpg",
      "title" : "Bombshell",
      "overview" : "Bombshell is a revealing look inside the most powerful and controversial media empire of all time; and the explosive story of the women who brought down the infamous man who created it.",
      "original_language" : "en",
      "vote_count" : 1183,
      "release_date" : "2019-12-13",
      "video" : false
    },
    {
      "id" : 595148,
      "adult" : false,
      "backdrop_path" : "\/t39n8yGBRW94sGm662V3ylpimQI.jpg",
      "original_title" : "Irresistible",
      "genre_ids" : [
        35,
        18
      ],
      "vote_average" : 0,
      "popularity" : 33.234999999999999,
      "poster_path" : "\/nPx3juctkdZvgrJ4DO35dUnVsyF.jpg",
      "title" : "Irresistible",
      "overview" : "A Democratic political consultant helps a retired Marine colonel run for mayor in a small, conservative Wisconsin town.",
      "original_language" : "en",
      "vote_count" : 0,
      "release_date" : "2020-06-26",
      "video" : false
    },
    {
      "id" : 552178,
      "adult" : false,
      "backdrop_path" : "\/4ZSlTfkHtgTTupCaLbseXQQzZha.jpg",
      "original_title" : "Dark Waters",
      "genre_ids" : [
        18,
        53
      ],
      "vote_average" : 7.4000000000000004,
      "popularity" : 33.079999999999998,
      "poster_path" : "\/hJ6YEbrjFvToa5c7IiUqILoB6Je.jpg",
      "title" : "Dark Waters",
      "overview" : "A tenacious attorney uncovers a dark secret that connects a growing number of unexplained deaths to one of the world's largest corporations. In the process, he risks everything — his future, his family, and his own life — to expose the truth.",
      "original_language" : "en",
      "vote_count" : 568,
      "release_date" : "2019-11-22",
      "video" : false
    },
    {
      "id" : 714836,
      "adult" : false,
      "backdrop_path" : null,
      "original_title" : "Brock: Over the Top",
      "genre_ids" : [
        99
      ],
      "vote_average" : 2,
      "popularity" : 33.043999999999997,
      "poster_path" : "\/saFUfISNJvyVIS82ZAQCGbz7v8g.jpg",
      "title" : "Brock: Over the Top",
      "overview" : "Brock: Over the Top is a feature length documentary that not only chronicles the extraordinary life of Australia’s greatest racing car driver, Peter Brock, but peels away the surface to reveal the profoundly human story behind the legend. This film is a cinematic, thrilling yet intimately personal portrait of a life lived on the racing track and in the public eye.  Using a treasure trove of rare archival material coupled with candid interviews with the key characters in Peter Brock’s life including his family, his partners, and closest colleagues, this film tells the epic story of Brock's early obsession with cars, his hard won ascension to the top, his incredible record-breaking victories at Bathurst, his various professional and personal controversies, and his ultimate, tragic death on the race track.",
      "original_language" : "en",
      "vote_count" : 1,
      "release_date" : "2020-06-22",
      "video" : false
    },
    {
      "id" : 712362,
      "adult" : false,
      "backdrop_path" : null,
      "original_title" : "Four Of A Kind",
      "genre_ids" : [
        35,
        18
      ],
      "vote_average" : 1,
      "popularity" : 31.571000000000002,
      "poster_path" : "\/z0bftiv5YWoVWyBr8w06iDGpYWG.jpg",
      "title" : "Four Of A Kind",
      "overview" : "A poker game goes wrong leading to arguments and strange coincedences",
      "original_language" : "en",
      "vote_count" : 1,
      "release_date" : "2020-06-23",
      "video" : false
    },
    {
      "id" : 555974,
      "adult" : false,
      "backdrop_path" : "\/rpGYHowXtjw37UxdwO1ZcK5E8IN.jpg",
      "original_title" : "Brahms: The Boy II",
      "genre_ids" : [
        27,
        9648,
        53
      ],
      "vote_average" : 6.2999999999999998,
      "popularity" : 28.969999999999999,
      "poster_path" : "\/tIpGQ9uuII7QVFF0GHCFTJFfXve.jpg",
      "title" : "Brahms: The Boy II",
      "overview" : "After a family moves into the Heelshire Mansion, their young son soon makes friends with a life-like doll called Brahms.",
      "original_language" : "en",
      "vote_count" : 464,
      "release_date" : "2020-02-20",
      "video" : false
    },
    {
      "id" : 457335,
      "adult" : false,
      "backdrop_path" : "\/xBHTHkNL1Urhc8K8NHzIih7unjs.jpg",
      "original_title" : "Guns Akimbo",
      "genre_ids" : [
        28,
        35
      ],
      "vote_average" : 6.4000000000000004,
      "popularity" : 28.376999999999999,
      "poster_path" : "\/2kNnf7BwRCEm4bcFkdiE0T4U25s.jpg",
      "title" : "Guns Akimbo",
      "overview" : "An ordinary guy suddenly finds himself forced to fight a gladiator-like battle for a dark website that streams the violence for viewers. Miles must fight heavily armed Nix and also save his kidnapped ex-girlfriend.",
      "original_language" : "en",
      "vote_count" : 720,
      "release_date" : "2019-09-09",
      "video" : false
    },
    {
      "id" : 556678,
      "adult" : false,
      "backdrop_path" : "\/5GbkL9DDRzq3A21nR7Gkv6cFGjq.jpg",
      "original_title" : "Emma.",
      "genre_ids" : [
        35,
        18,
        10749
      ],
      "vote_average" : 7,
      "popularity" : 28.242000000000001,
      "poster_path" : "\/uHpHzbHLSsVmAuuGuQSpyVDZmDc.jpg",
      "title" : "Emma.",
      "overview" : "In 1800s England, a well-meaning but selfish young woman meddles in the love lives of her friends.",
      "original_language" : "en",
      "vote_count" : 347,
      "release_date" : "2020-02-13",
      "video" : false
    },
    {
      "id" : 531876,
      "adult" : false,
      "backdrop_path" : "\/h6SeTbpFRjx5NIppi6h5iXoFzBg.jpg",
      "original_title" : "The Outpost",
      "genre_ids" : [
        18,
        36,
        10752
      ],
      "vote_average" : 0,
      "popularity" : 28.044,
      "poster_path" : "\/goEW6QqoFxNI2pfbpVqmXj2WXwd.jpg",
      "title" : "The Outpost",
      "overview" : "Based on true events, in this military thriller, a small unit of U.S. soldiers, alone at the remote Combat Outpost Keating, located deep in the valley of three mountains in Afghanistan, battles to defend against an overwhelming force of Taliban fighters in a coordinated attack. The Battle of Kamdesh, as it was known, was the bloodiest American engagement of the Afghan War in 2009 and Bravo Troop 3-61 CAV became one of the most decorated units of the 19-year conflict.",
      "original_language" : "en",
      "vote_count" : 0,
      "release_date" : "2020-07-02",
      "video" : false
    },
    {
      "id" : 521531,
      "adult" : false,
      "backdrop_path" : "\/2jzaFlLVG63W1lcu5kExypLey9T.jpg",
      "original_title" : "Followed",
      "genre_ids" : [
        27,
        9648,
        53
      ],
      "vote_average" : 0,
      "popularity" : 27.876000000000001,
      "poster_path" : "\/3B2twt8I02cLAPHG6dkDpTFbgz5.jpg",
      "title" : "Followed",
      "overview" : "To gain more subscribers, a controversial vlogger stays at a cursed hotel with terrifying results.",
      "original_language" : "en",
      "vote_count" : 0,
      "release_date" : "2020-06-26",
      "video" : false
    },
    {
      "id" : 484641,
      "adult" : false,
      "backdrop_path" : "\/oHDnvxSDOTsaYZSUibJjrEMWMLL.jpg",
      "original_title" : "Anna",
      "genre_ids" : [
        28,
        53
      ],
      "vote_average" : 6.7000000000000002,
      "popularity" : 26.895,
      "poster_path" : "\/ybizg6RSYX3yvOQ2iLYucTrHGw2.jpg",
      "title" : "Anna",
      "overview" : "Beneath Anna Poliatova's striking beauty lies a secret that will unleash her indelible strength and skill to become one of the world's most feared government assassins.",
      "original_language" : "fr",
      "vote_count" : 1161,
      "release_date" : "2019-06-19",
      "video" : false
    }
  ],
  "dates" : {
    "maximum" : "2020-07-17",
    "minimum" : "2020-06-22"
  },
  "total_pages" : 10,
  "total_results" : 182,
  "page" : 1
}
